<svg width="34" height="22" viewBox="0 0 34 22" version="1.1" xmlns="http://www.w3.org/2000/svg" xmlns:xlink="http://www.w3.org/1999/xlink">
<title>logo</title>
<desc>Created omiD Baghi</desc>
<g id="Canvas" transform="translate(-6675 13069)">
<g id="logo">
<g id="Rectangle 4">
<use xlink:href="#path0_fill" transform="matrix(0.707107 0.707107 0.707107 -0.707107 6674 -13051.6)" fill="#93A3B7"/>
</g>
<g id="Rectangle 4">
<use xlink:href="#path1_fill" transform="matrix(0.707107 0.707107 0.707107 -0.707107 6685.81 -13050.7)" fill="#C7D1DF"/>
</g>
<g id="Rectangle 4">
<use xlink:href="#path2_fill" transform="matrix(0.707107 0.707107 0.707107 -0.707107 6698.75 -13050.9)" fill="#E9EDF2"/>
</g>
</g>
</g>
<defs>
<path id="path0_fill" d="M 0 3.5C 0 1.567 1.567 0 3.5 0L 3.5 0C 5.433 0 7 1.567 7 3.5L 7 22.5C 7 24.433 5.433 26 3.5 26L 3.5 26C 1.567 26 0 24.433 0 22.5L 0 3.5Z"/>
<path id="path1_fill" d="M 0 3.5C 0 1.567 1.567 0 3.5 0L 3.5 0C 5.433 0 7 1.567 7 3.5L 7 14.8034C 7 16.7364 5.433 18.3034 3.5 18.3034L 3.5 18.3034C 1.567 18.3034 0 16.7364 0 14.8034L 0 3.5Z"/>
<path id="path2_fill" d="M 0 3.5C 0 1.567 1.567 0 3.5 0L 3.5 0C 5.433 0 7 1.567 7 3.5L 7 5.5C 7 7.433 5.433 9 3.5 9L 3.5 9C 1.567 9 0 7.433 0 5.5L 0 3.5Z"/>
</defs>
</svg>
